PG3556MV;Virvicius;Vytautas;IFF-6/1
PV3456MM;Gailius;Mantas;IFF-6/1
CR7985TT;Jermanovicius;Jonas;IFF-6/1
HH5432AA;Navickas;Skirmantas;IFF-6/1
BA6547BB;Sakalavicius;Justinas;IFF-6/1
TT1312CA;Liaukeviciute;Justina;IFF-4/1
GA8974LL;Jankauskas;Lukas;IFF-4/3
PG3556MV;Meironas;Otas;IFF-4/1
PG3556MV;Medis;Tomas;IFF-4/1
CR7985TT;Zaliabarstis;Edgaras;IFF-4/1
TT1312CA;Visokinskas;Dalius;IFF-4/3
TT1312CA;Apolskis;Linas;IFF-4/3
TT1312CA;Slepikas;Tomas;IFF-4/3
HH5432AA;Sreimikis;Algirdas;IFF-4/3
HH5432AA;Saceviciute;Gabriele;IFF-6/1
PG3556MV;Zukauskaite;Vaiva;IFF-6/1
PG3556MV;Zukaite;Audinga;IFF-6/1